{
    "$id": "https://oq.com/factorsC19.schema.json",
    "$schema": "http://json-schema.org/draft-07/schema#",
    "title": "Cancer Disease Factors",
    "description": "Disease factors that describe ovarian cancer",
    "type": "object",
    "properties": {
        "isInvasive": {
            "type": "boolean"
        }
    }
}