{
    "$id": "https://oq.com/chompret-guideline-assessment.schema.json",
    "$schema": "http://json-schema.org/draft-07/schema#",
    "title": "Chompret Guideline Assessment",
    "description": "Chompret Guideline assessment",
    "type": "object",
    "properties": {
        "recommendation": {
            "type": "string"
        },
        "criteria":{
            "type": "string"
        },
        "class":{
            "type": "string"
        }
    },
    "required": [
        "class"
    ]
}