{
    "$id": "https://oq.com/uspstf-guideline-assessment.schema.json",
    "$schema": "http://json-schema.org/draft-07/schema#",
    "title": "USPSTF Guideline Assessment",
    "description": "USPSTF Guideline assessment",
    "type": "object",
    "properties": {
        "recommendation": {
            "type": "string"
        },
        "criteria":{
            "type": "string"
        },
        "syndromes": {
            "type":"array",
            "items": {
                "$ref": "acmg_syndrome.json"
            }            
        }
    },
    "required": [
        "recommendation",
        "criteria",
        "syndromes"
    ]
}