id	risk_level	criteria	recommendation
1	personal	Proband with tumor belonging to LFS tumor spectrum (eg, soft tissue sarcoma, osteosarcoma, brain tumor, premenopausal breast cancer, adrenocortical carcinoma, leukemia, lung bronchoalveolar cancer) before age 46 years AND at least one first- or second-degree relative with LFS tumor (except breast cancer if proband has breast cancer) before age 56 years or with multiple tumors	TP53 Genetic Mutation Screening recommended
2	personal	 Proband with multiple tumors (except multiple breast tumors), two of which belong to LFS tumor spectrum and first of which occurred before age 46 years	TP53 Genetic Mutation Screening recommended
3	personal	Patient with adrenocortical carcinoma or choroid plexus tumor, irrespective of family history	TP53 Genetic Mutation Screening recommended