{
    "$schema": "http://json-schema.org/draft-07/schema#",
    "definitions": {
        "patientRecommendations": {
            "description": "Patient recommendations from ACMG and NCCN",
            "type": "object",
            "properties": {
                "genetic-counseling": {
                    "$ref": "#/definitions/genetic-counseling"
                },
                "genetic-testing": {
                    "$ref": "#/definitions/genetic-testing"
                }
            },
            "required": [
                "relationToProband"
            ]
        },
        "genetic-counseling": {
            "$ref": "#/definitions/recommendations"
        },
        "genetic-testing": {
            "$ref": "#/definitions/recommendations"
        },
        "recommendations": {
            "type": "object",
            "properties": {
                "text": {
                    "type": "array",
                    "items": {
                        "type": "string"
                    }
                },
                "criteria": {
                    "type": "array",
                    "items": {
                        "type": "string"
                    }
                }
            }
        }
    },
    "patientRecommendations": {
        "$ref": "#/definitions/patientRecommendations"
    }
}