id	risk_level	cancer	age	gender	condition	recommendation	additional_notes
1	family	colorectal	21-44	male or female	higher than average risk because of family history, genetic disorders, or other factors	talk to provider	Talk to a health care provider about when you need to start testing and what tests are right for you.
2	personal	colorectal	45-75	male or female		get screening	All people at average risk should start testing at age 45. There are several testing options. Talk with a health care provider about which tests are best for you and how often testing should be done.
3	personal	colorectal	76-85	male or female		get screening	People aged 76 to 85 should talk with their health care provider about whether continuing screening is right for them.
4	personal	colorectal	86 and older	male or female		no screening	Most people older than 85 should no longer be screened. If you are being screened, there are many testing options. Talk with a health care provider about which tests are best for you and how often testing should be done.
1	family	breast	21-44	female	higher than average risk because of family history, genetic disorders, or other factors	talk to provider	Know how your breasts normally look and feel and report any changes to a health care provider right away. Talk to a health care provider about when you need to start getting mammograms or other screening tests.
2	personal	breast	40-44	female		talk to provider	Know how your breasts normally look and feel and report any changes to a health care provider right away. Women ages 40 to 44 should have the choice to start annual breast cancer screening with mammograms if they wish to do so. The pros and cons of screening should be considered when making this decision.
3	personal	breast	45-54	female	more than one year since last mammogram	get screening	Know how your breasts normally look and feel and report any changes to a health care provider right away. Starting at age 45, women should get mammograms every year. Be sure you understand the pros and cons of breast cancer screening.
4	personal	breast	55 and older	female	more than two years since last mammogram	get screening	Know how your breasts normally look and feel and report any changes to a health care provider right away. Starting at age 55, you should switch to getting mammograms every 2 years, or you can continue to get one every year. Be sure you understand the pros and cons of breast cancer screening.
1	family	prostate	45 and older	male	higher than average risk of prostate cancer	talk to provider	Starting at age 45, men at higher than average risk of prostate cancer should talk with a doctor about the uncertainties, risks, and potential benefits of testing so they can decide if they want to be tested. 
2	family	prostate	45 and older	male	have a father or brother who had prostate cancer before 65	talk to provider	Men with close family members (father, brother, son) who had prostate cancer before age 65 should talk with a doctor about the uncertainties, risks, and potential benefits of testing so they can decide if they want to be tested.
3	family	prostate	45 and older	male	if african american ancestry	talk to provider	African-American men should talk with a doctor about the uncertainties, risks, and potential benefits of testing so they can decide if they want to be tested.
4	family	prostate	40 and older	male	>= 2 close relatives with prostate cancer before 65	talk to provider	Men with more than one close relative who had prostate cancer before age 65 are at even higher risk and should talk with a doctor about testing starting at age 40.
5	personal	prostate	50-64	male		talk to provider	Starting at age 50, all men at average risk should talk with a health care provider about the uncertainties, risks, and potential benefits of testing so they can decide if they want to be tested.
6	personal	prostate	65 and older	male		talk to provider	Overall health status, and not age alone, is important when making decisions about prostate cancer testing. Men who can expect to live at least 10 more years should talk with a health care provider about the uncertainties, risks, and potential benefits of testing so they can decide if they want to be tested.
1	personal	lung	55 or older	male or female	Currently smoke or have quit smoking in the past 15 years AND Have at least a 30 pack-year smoking history. (A pack-year is 1 pack of cigarettes per day per year. One pack per day for 30 years or 2 packs per day for 15 years would both be 30 pack-years.)	talk to provider	If you are age 55 or older, talk to a health care provider about your smoking history and whether you should get yearly low-dose CT scans to screen for early lung cancer. Screening may benefit if you are an active or former smoker (quit within the past 15 years), have no signs of lung cancer, and have a 30 pack-year smoking history. (A pack-year is 1 pack of cigarettes per day per year. One pack per day for 30 years or 2 packs per day for 15 years would both be 30 pack-years.) You should discuss the benefits, limitations, risks, and potential costs of screening with a health care provider before testing is done. You also should find out how much the test will cost – not all health insurances cover it.