{
    "$id": "https://oq.com/traits.schema.json",
    "$schema": "http://json-schema.org/draft-07/schema#",
    "title": "Patient FHx",
    "description": "Family health history information for patient",
    "type": "object",
    "properties": {
        "ancestry": {
            "type": "array",
            "items": {
                "type": "string"
            }
        },
        "skinColor": {
            "type": "string",
            "enum": [
                "white",
                "olive",
                "brown",
                "black"
            ]
        },
        "bodyWeight": {
            "description": "weight in kg",
            "type": "integer",
            "minimum": 0
        },
        "bodyHeight": {
            "description": "height in cm",
            "type": "integer",
            "minimum": 0
        }
    }
}