{
    "$id": "https://oq.com/unaffected_at_risk_family_members.schema.json",
    "$schema": "http://json-schema.org/draft-07/schema#",
    "title": "Unaffected At Risk Family Members",
    "description": "Unaffected At Risk Family Members",
    "type": "object",
    "properties": {
        "patientName": {
            "type": "string"
        },
        "patientAge": {
            "type": "number"
        },
        "relationToProband": {
            "type": "string"
        },
        "displayRelationToProband": {
            "type": "string"
        }
    }
}