{
        "id": "Gene",
        "name": "Patient Gene",
        "subtypes": [
            {
                "id": "G1",
                "name": "TP53"
            },
            {
                "id": "G10",
                "name": "PMS2"
            },
            {
                "id": "G100",
                "name": "ETV6"
            },
            {
                "id": "G101",
                "name": "EZH2"
            },
            {
                "id": "G102",
                "name": "FBXW7"
            },
            {
                "id": "G103",
                "name": "FGFR1"
            },
            {
                "id": "G104",
                "name": "FGFR2"
            },
            {
                "id": "G105",
                "name": "FGFR3"
            },
            {
                "id": "G106",
                "name": "FLT3"
            },
            {
                "id": "G107",
                "name": "GATA1"
            },
            {
                "id": "G108",
                "name": "GNA11"
            },
            {
                "id": "G109",
                "name": "GNAQ"
            },
            {
                "id": "G11",
                "name": "CDH1"
            },
            {
                "id": "G110",
                "name": "GNAS"
            },
            {
                "id": "G111",
                "name": "GPC3"
            },
            {
                "id": "G112",
                "name": "HMRNPK"
            },
            {
                "id": "G113",
                "name": "HNF1A"
            },
            {
                "id": "G114",
                "name": "HOXB13"
            },
            {
                "id": "G115",
                "name": "JAK2"
            },
            {
                "id": "G116",
                "name": "KDM6A"
            },
            {
                "id": "G117",
                "name": "KMT2A"
            },
            {
                "id": "G118",
                "name": "LUC7L2"
            },
            {
                "id": "G119",
                "name": "NOTCH1"
            },
            {
                "id": "G12",
                "name": "APC"
            },
            {
                "id": "G120",
                "name": "NSD1"
            },
            {
                "id": "G121",
                "name": "PHF6"
            },
            {
                "id": "G122",
                "name": "PIK3CA"
            },
            {
                "id": "G123",
                "name": "PRPF40B"
            },
            {
                "id": "G124",
                "name": "RAD21"
            },
            {
                "id": "G125",
                "name": "RECOL4"
            },
            {
                "id": "G126",
                "name": "SETPB1"
            },
            {
                "id": "G127",
                "name": "SF1"
            },
            {
                "id": "G128",
                "name": "SF3A1"
            },
            {
                "id": "G129",
                "name": "SF3B1"
            },
            {
                "id": "G13",
                "name": "ATM"
            },
            {
                "id": "G130",
                "name": "SMARCE1"
            },
            {
                "id": "G131",
                "name": "SMC1A"
            },
            {
                "id": "G132",
                "name": "SMC3"
            },
            {
                "id": "G133",
                "name": "SMO"
            },
            {
                "id": "G134",
                "name": "SRC"
            },
            {
                "id": "G135",
                "name": "SRSF2"
            },
            {
                "id": "G136",
                "name": "STAG2"
            },
            {
                "id": "G137",
                "name": "TERC"
            },
            {
                "id": "G138",
                "name": "TERT"
            },
            {
                "id": "G139",
                "name": "WARN"
            },
            {
                "id": "G14",
                "name": "PALB2"
            },
            {
                "id": "G140",
                "name": "CSF1R"
            },
            {
                "id": "G141",
                "name": "KDR"
            },
            {
                "id": "G15",
                "name": "MUYTH"
            },
            {
                "id": "G16",
                "name": "CHEK2"
            },
            {
                "id": "G17",
                "name": "VHL"
            },
            {
                "id": "G18",
                "name": "BMPR1A"
            },
            {
                "id": "G19",
                "name": "CDKN2A"
            },
            {
                "id": "G2",
                "name": "PTEN"
            },
            {
                "id": "G20",
                "name": "SMAD4"
            },
            {
                "id": "G21",
                "name": "NBN"
            },
            {
                "id": "G22",
                "name": "BARD1"
            },
            {
                "id": "G23",
                "name": "BRIP1"
            },
            {
                "id": "G24",
                "name": "CDK4"
            },
            {
                "id": "G25",
                "name": "RAD51C"
            },
            {
                "id": "G26",
                "name": "RAD51D"
            },
            {
                "id": "G27",
                "name": "SDHB"
            },
            {
                "id": "G28",
                "name": "SDHC"
            },
            {
                "id": "G29",
                "name": "SDHD"
            },
            {
                "id": "G3",
                "name": "BRCA2"
            },
            {
                "id": "G30",
                "name": "NF1"
            },
            {
                "id": "G31",
                "name": "BAP1"
            },
            {
                "id": "G32",
                "name": "RET"
            },
            {
                "id": "G33",
                "name": "GREM1"
            },
            {
                "id": "G34",
                "name": "MEN1"
            },
            {
                "id": "G35",
                "name": "MET"
            },
            {
                "id": "G36",
                "name": "POLD1"
            },
            {
                "id": "G37",
                "name": "POLE"
            },
            {
                "id": "G38",
                "name": "TSC1"
            },
            {
                "id": "G39",
                "name": "TSC2"
            },
            {
                "id": "G4",
                "name": "MLH1"
            },
            {
                "id": "G40",
                "name": "FH"
            },
            {
                "id": "G41",
                "name": "FLCN"
            },
            {
                "id": "G42",
                "name": "MAX"
            },
            {
                "id": "G43",
                "name": "RB1"
            },
            {
                "id": "G44",
                "name": "SDHA "
            },
            {
                "id": "G45",
                "name": "SDHAF2"
            },
            {
                "id": "G46",
                "name": "SMARCA4"
            },
            {
                "id": "G47",
                "name": "TMEM127"
            },
            {
                "id": "G48",
                "name": "ALK"
            },
            {
                "id": "G49",
                "name": "MITF"
            },
            {
                "id": "G5",
                "name": "MSH2"
            },
            {
                "id": "G50",
                "name": "RAD50"
            },
            {
                "id": "G51",
                "name": "AXIN2"
            },
            {
                "id": "G52",
                "name": "MRE11A"
            },
            {
                "id": "G53",
                "name": "NF2"
            },
            {
                "id": "G54",
                "name": "PHOX2B"
            },
            {
                "id": "G55",
                "name": "SMARCB1"
            },
            {
                "id": "G56",
                "name": "SUFU"
            },
            {
                "id": "G57",
                "name": "FANCC"
            },
            {
                "id": "G58",
                "name": "XRCC2"
            },
            {
                "id": "G59",
                "name": "CDC73"
            },
            {
                "id": "G6",
                "name": "BRCA1"
            },
            {
                "id": "G60",
                "name": "DICER1"
            },
            {
                "id": "G61",
                "name": "KIT"
            },
            {
                "id": "G62",
                "name": "PRKR1A"
            },
            {
                "id": "G63",
                "name": "PTCH1"
            },
            {
                "id": "G64",
                "name": "BRINP3"
            },
            {
                "id": "G65",
                "name": "CDKN1B"
            },
            {
                "id": "G66",
                "name": "CEBPA"
            },
            {
                "id": "G67",
                "name": "EGFR"
            },
            {
                "id": "G68",
                "name": "GATA2"
            },
            {
                "id": "G69",
                "name": "HRAS"
            },
            {
                "id": "G7",
                "name": "MSH6"
            },
            {
                "id": "G70",
                "name": "IDH1"
            },
            {
                "id": "G71",
                "name": "IDH2"
            },
            {
                "id": "G72",
                "name": "JAK3"
            },
            {
                "id": "G73",
                "name": "KRAS"
            },
            {
                "id": "G74",
                "name": "MPL"
            },
            {
                "id": "G75",
                "name": "NPM1"
            },
            {
                "id": "G76",
                "name": "NRAS"
            },
            {
                "id": "G77",
                "name": "PDGFRA"
            },
            {
                "id": "G78",
                "name": "PTPN11"
            },
            {
                "id": "G79",
                "name": "RUNX1"
            },
            {
                "id": "G8",
                "name": "STK11"
            },
            {
                "id": "G80",
                "name": "WT1"
            },
            {
                "id": "G81",
                "name": "ABL1"
            },
            {
                "id": "G82",
                "name": "AKT1"
            },
            {
                "id": "G83",
                "name": "ASXL1"
            },
            {
                "id": "G84",
                "name": "BCOR"
            },
            {
                "id": "G85",
                "name": "BCORL1"
            },
            {
                "id": "G86",
                "name": "BLM"
            },
            {
                "id": "G87",
                "name": "BRAF"
            },
            {
                "id": "G88",
                "name": "CALR"
            },
            {
                "id": "G89",
                "name": "CASR"
            },
            {
                "id": "G9",
                "name": "EPCAM"
            },
            {
                "id": "G90",
                "name": "CBL"
            },
            {
                "id": "G91",
                "name": "CDKN1C"
            },
            {
                "id": "G92",
                "name": "CSF3R"
            },
            {
                "id": "G93",
                "name": "CTNNB1"
            },
            {
                "id": "G94",
                "name": "DIS3L2"
            },
            {
                "id": "G95",
                "name": "DNMT1"
            },
            {
                "id": "G96",
                "name": "DNMT3A"
            },
            {
                "id": "G97",
                "name": "EED"
            },
            {
                "id": "G98",
                "name": "ERBB2"
            },
            {
                "id": "G99",
                "name": "ERBB4"
            }
        ]
    }