{
    "$id": "https://oq.com/colonoscopy.schema.json",
    "$schema": "http://json-schema.org/draft-07/schema#",
    "title": "Patient colonoscopy info",
    "description": "Colonoscopy findings for a patient",
    "type": "object",
    "properties": {
        "ageLastColonoscopy": {
            "$ref": "age.json"
        },
        "polyps": {
            "type": "object",
            "properties": {
                "adenomatous": {
                    "type": "object",
                    "properties": {
                        "tubular": {
                            "type": "integer"
                        },
                        "villous": {
                            "type": "integer"
                        },
                        "tubulovillous": {
                            "type": "integer"
                        },
                        "serrated"  : {
                            "type": "object",
                            "properties": {
                                "sessile": {
                                    "type": "object",
                                    "properties": {
                                        "proximal": {
                                            "type": "integer"
                                        },
                                        "distal": {
                                            "type": "integer"
                                        },
                                        "throughout": {
                                            "type": "integer"
                                        }
                                    }
                                },
                                "traditional": {
                                    "type": "integer"
                                }
                            }
                        }
                    }
                },
                "hamartomatous": {
                    "type": "object",
                    "properties": {
                        "juvenile": {
                            "type": "integer"
                        },
                        "peutzJeghers": {
                            "type": "integer"
                        }
                    }
                }
            }
        }
    },
    "required": [
        "polyps"
    ]
}