{
    "$id": "https://oq.com/relative.schema.json",
    "$schema": "http://json-schema.org/draft-07/schema#",
    "title": "Relative FHx",
    "description": "Family health history information for relative of patient",
    "type": "object",
    "properties": {
        "name": {
            "type": "string"
        },
        "relationToProband": {
            "type": "string",
            "enum": [
                "self",
                "MTH",
                "FTH",
                "BRO",
                "SIS",
                "SON",
                "DAU",
                "MAUNT",
                "PAUNT",
                "MUNCLE",
                "PUNCLE",
                "NIECE",
                "NEPHEW",
                "MGRMTH",
                "PGRMTH",
                "MGRFTH",
                "PGRFTH",
                "GSON",
                "GDAUC"
            ]
        },
        "age": {
            "$ref": "age.json"
        },
        "sex": {    
            "type": "string",
            "enum": [
                "male",
                "female"
            ]
        },
        "conditions": {
            "type": "array",
            "items": {
                "$ref": "condition.json"
            }
        },
        "traits": {
            "$ref": "traits.json"
        },
        "colonoscopy": {
            "$ref": "colonoscopy.json"
        },
        "geneMutations": {
            "type": "array",
            "items": {
                "$ref": "gene_mutation.json"
            }
        },
        "mammogram": {
            "$ref": "mammogram.json"
        },
        "smokingStatus": {
            "$ref": "smoking_history.json"
        }
    },
    "required": [
        "relationToProband"
    ]
}