{
    "$id": "https://oq.com/screening_history_response.schema.json",
    "$schema": "http://json-schema.org/draft-07/schema#",
    "title": "Patient Screening History",
    "description": "Screening history for patient post analysis",
    "type": "object",
    "properties": {
        "monthsSinceLastMammogram": {
            "type": "number"
        },
        "ageLastColonoscopy": {
            "$ref": "age.json"
        },
        "pjPolypCount": {
            "type": "number",
            "minimum": 0
        },
        "juvenilePolypCount": {
            "type": "number",
            "minimum": 0
        },
        "hamartomatousPolypCount": {
            "type": "number",
            "minimum": 0
        },
        "adenomatousPolypCount": {
            "type": "number",
            "minimum": 0
        }
    }
}