{
    "$id": "https://oq.com/claus-risk-model-assessment.schema.json",
    "$schema": "http://json-schema.org/draft-07/schema#",
    "title": "Claus Risk Model Assessment",
    "description": "Claus risk model assessment",
    "type": "object",
    "properties": {
        "posterior": {
            "type": "array"
        },
        "probs":{
            "type": "array"
        },
        "predictions": {
            "type": "array"
        }
    }
}