id	risk_level	criteria	recommendation	acmg_title	omim_accession	description	omim_title	link	omim_entry_type
1	personal	Breast cancer dx at age ≤50 	Consider referral for a cancer genetic consultation	Hereditary breast–ovarian cancer syndrome (HBOC)	604370|612555	Hereditary breast–ovarian cancer (HBOC) syndrome is caused by mutations in the BRCA1 and BRCA2 genes and is characterized by increased risks for early-onset breast, multiple breast primaries, male breast, and epithelial ovarian, Fallopian tube, or primary peritoneal cancers. In addition, cancers of the pancreas, prostate, and melanoma are more common in individuals with HBOC syndrome. The pathology of “triple-negative phenotype” breast cancer (estrogen receptor–negative, progesterone receptor–negative, and HER2/neu–negative) has been strongly associated with BRCA1 mutations.56–59 The likelihood of identifying a BRCA1/2 mutation in a woman with ovarian cancer at any age is around 13–18%.60–62 Of males with breast cancer, 15–20% have a BRCA1/2 mutation.63 The overall prevalence of BRCA1 mutations is estimated at 1 in 300 and that of BRCA2 mutations is estimated at 1 in 800, but founder mutations in many populations (e.g., Ashkenazi Jewish,64–67 Icelandic,68 and Mexican Hispanic69 populations) lead to increased mutation prevalence in these populations. Referral should be considered for any individual with a personal history of or first-degree relative with (i) breast cancer diagnosed at or before age 50; (ii) triple-negative breast cancer diagnosed at or before age 60; (iii) two or more primary breast cancers in the same person; (iv) ovarian, Fallopian tube, or primary peritoneal cancer; (v) Ashkenazi Jewish ancestry and breast or pancreatic cancer at any age; or (vi) male breast cancer. Individuals with a family history of three or more cases of breast, ovarian, pancreatic, and/or aggressive prostate cancer (Gleason score ≥7) (refs.70,71) should also be referred. Note that this should not include families in which all three cases are aggressive prostate cancer.	BREAST-OVARIAN CANCER, FAMILIAL, SUSCEPTIBILITY TO, 1; BROVCA1|BREAST-OVARIAN CANCER, FAMILIAL, SUSCEPTIBILITY TO, 2; BROVCA2	https://www.omim.org/entry/604370|https://www.omim.org/entry/612555	Descriptive Entry|Descriptive Entry
1	personal	Breast cancer dx at age ≤50 	Consider referral for a cancer genetic consultation	Li–Fraumeni syndrome (LFS)	151623	Li–Fraumeni syndrome (LFS) is caused by mutations in theTP53 gene and is characterized by the core cancers of breast,brain, adrenocortex, and non-Ewing sarcoma, with onsetoften before age 50 and multiple primary tumors. Young ageat diagnosis (before age 30) and the type of malignancy are goodindicators of a TP53 mutation. In individuals diagnosed withan adrenocortical tumor or choroid plexus tumor at or beforeage 18, the likelihood of identifying a TP53 mutation approaches80 and 100%, respectively. Individuals with a childhoodsarcoma have a higher likelihood of LFS; 6.6% had a TP53 mutation in one series (although the majority of these cases wouldmeet the classic LFS criteria). For these guidelines, we areadopting a combination of the Eeles and revised Chompret criteria. In two large studies, 29% and 35% of individualswho met the original, slightly more restrictive, Chompret criteria had a TP53 mutation. However, 14% of individuals whomet the looser Eeles criteria also had a TP53 mutation.Referral should be considered for any individual with a personal history of or first-degree relative with (i) two or moreclose relatives with a tumor in the LFS spectrum (Table 5),one diagnosed at or before age 45; (ii) breast cancer diagnosedbefore age 30; (iii) two or more LFS tumors in the same person,one diagnosed at or before age 45; (iv) adrenocortical tumor;(v) choroid plexus tumor; or (vi) childhood sarcoma.	LI-FRAUMENI SYNDROME; LFS	https://www.omim.org/entry/151623	Descriptive Entry
2	personal	Triple-negative breast cancer dx at age ≤60	Consider referral for a cancer genetic consultation	Hereditary breast–ovarian cancer syndrome (HBOC)	604370|612555	Hereditary breast–ovarian cancer (HBOC) syndrome is caused by mutations in the BRCA1 and BRCA2 genes and is characterized by increased risks for early-onset breast, multiple breast primaries, male breast, and epithelial ovarian, Fallopian tube, or primary peritoneal cancers. In addition, cancers of the pancreas, prostate, and melanoma are more common in individuals with HBOC syndrome. The pathology of “triple-negative phenotype” breast cancer (estrogen receptor–negative, progesterone receptor–negative, and HER2/neu–negative) has been strongly associated with BRCA1 mutations.56–59 The likelihood of identifying a BRCA1/2 mutation in a woman with ovarian cancer at any age is around 13–18%.60–62 Of males with breast cancer, 15–20% have a BRCA1/2 mutation.63 The overall prevalence of BRCA1 mutations is estimated at 1 in 300 and that of BRCA2 mutations is estimated at 1 in 800, but founder mutations in many populations (e.g., Ashkenazi Jewish,64–67 Icelandic,68 and Mexican Hispanic69 populations) lead to increased mutation prevalence in these populations. Referral should be considered for any individual with a personal history of or first-degree relative with (i) breast cancer diagnosed at or before age 50; (ii) triple-negative breast cancer diagnosed at or before age 60; (iii) two or more primary breast cancers in the same person; (iv) ovarian, Fallopian tube, or primary peritoneal cancer; (v) Ashkenazi Jewish ancestry and breast or pancreatic cancer at any age; or (vi) male breast cancer. Individuals with a family history of three or more cases of breast, ovarian, pancreatic, and/or aggressive prostate cancer (Gleason score ≥7) (refs.70,71) should also be referred. Note that this should not include families in which all three cases are aggressive prostate cancer.	BREAST-OVARIAN CANCER, FAMILIAL, SUSCEPTIBILITY TO, 1; BROVCA1|BREAST-OVARIAN CANCER, FAMILIAL, SUSCEPTIBILITY TO, 2; BROVCA2	https://www.omim.org/entry/604370|https://www.omim.org/entry/612555	Descriptive Entry|Descriptive Entry
2	personal	Triple-negative breast cancer dx at age ≤60	Consider referral for a cancer genetic consultation	Li–Fraumeni syndrome (LFS)	151623	Li–Fraumeni syndrome (LFS) is caused by mutations in theTP53 gene and is characterized by the core cancers of breast,brain, adrenocortex, and non-Ewing sarcoma, with onsetoften before age 50 and multiple primary tumors. Young ageat diagnosis (before age 30) and the type of malignancy are goodindicators of a TP53 mutation. In individuals diagnosed withan adrenocortical tumor or choroid plexus tumor at or beforeage 18, the likelihood of identifying a TP53 mutation approaches80 and 100%, respectively. Individuals with a childhoodsarcoma have a higher likelihood of LFS; 6.6% had a TP53 mutation in one series (although the majority of these cases wouldmeet the classic LFS criteria). For these guidelines, we areadopting a combination of the Eeles and revised Chompret criteria. In two large studies, 29% and 35% of individualswho met the original, slightly more restrictive, Chompret criteria had a TP53 mutation. However, 14% of individuals whomet the looser Eeles criteria also had a TP53 mutation.Referral should be considered for any individual with a personal history of or first-degree relative with (i) two or moreclose relatives with a tumor in the LFS spectrum (Table 5),one diagnosed at or before age 45; (ii) breast cancer diagnosedbefore age 30; (iii) two or more LFS tumors in the same person,one diagnosed at or before age 45; (iv) adrenocortical tumor;(v) choroid plexus tumor; or (vi) childhood sarcoma.	LI-FRAUMENI SYNDROME; LFS	https://www.omim.org/entry/151623	Descriptive Entry
3	personal	≥2 primary breast cancers in the same person	Consider referral for a cancer genetic consultation	Hereditary breast–ovarian cancer syndrome (HBOC)	604370|612555	Hereditary breast–ovarian cancer (HBOC) syndrome is caused by mutations in the BRCA1 and BRCA2 genes and is characterized by increased risks for early-onset breast, multiple breast primaries, male breast, and epithelial ovarian, Fallopian tube, or primary peritoneal cancers. In addition, cancers of the pancreas, prostate, and melanoma are more common in individuals with HBOC syndrome. The pathology of “triple-negative phenotype” breast cancer (estrogen receptor–negative, progesterone receptor–negative, and HER2/neu–negative) has been strongly associated with BRCA1 mutations.56–59 The likelihood of identifying a BRCA1/2 mutation in a woman with ovarian cancer at any age is around 13–18%.60–62 Of males with breast cancer, 15–20% have a BRCA1/2 mutation.63 The overall prevalence of BRCA1 mutations is estimated at 1 in 300 and that of BRCA2 mutations is estimated at 1 in 800, but founder mutations in many populations (e.g., Ashkenazi Jewish,64–67 Icelandic,68 and Mexican Hispanic69 populations) lead to increased mutation prevalence in these populations. Referral should be considered for any individual with a personal history of or first-degree relative with (i) breast cancer diagnosed at or before age 50; (ii) triple-negative breast cancer diagnosed at or before age 60; (iii) two or more primary breast cancers in the same person; (iv) ovarian, Fallopian tube, or primary peritoneal cancer; (v) Ashkenazi Jewish ancestry and breast or pancreatic cancer at any age; or (vi) male breast cancer. Individuals with a family history of three or more cases of breast, ovarian, pancreatic, and/or aggressive prostate cancer (Gleason score ≥7) (refs.70,71) should also be referred. Note that this should not include families in which all three cases are aggressive prostate cancer.	BREAST-OVARIAN CANCER, FAMILIAL, SUSCEPTIBILITY TO, 1; BROVCA1|BREAST-OVARIAN CANCER, FAMILIAL, SUSCEPTIBILITY TO, 2; BROVCA2	https://www.omim.org/entry/604370|https://www.omim.org/entry/612555	Descriptive Entry|Descriptive Entry
3	personal	≥2 primary breast cancers in the same person	Consider referral for a cancer genetic consultation	Li–Fraumeni syndrome (LFS)	151623	Li–Fraumeni syndrome (LFS) is caused by mutations in theTP53 gene and is characterized by the core cancers of breast,brain, adrenocortex, and non-Ewing sarcoma, with onsetoften before age 50 and multiple primary tumors. Young ageat diagnosis (before age 30) and the type of malignancy are goodindicators of a TP53 mutation. In individuals diagnosed withan adrenocortical tumor or choroid plexus tumor at or beforeage 18, the likelihood of identifying a TP53 mutation approaches80 and 100%, respectively. Individuals with a childhoodsarcoma have a higher likelihood of LFS; 6.6% had a TP53 mutation in one series (although the majority of these cases wouldmeet the classic LFS criteria). For these guidelines, we areadopting a combination of the Eeles and revised Chompret criteria. In two large studies, 29% and 35% of individualswho met the original, slightly more restrictive, Chompret criteria had a TP53 mutation. However, 14% of individuals whomet the looser Eeles criteria also had a TP53 mutation.Referral should be considered for any individual with a personal history of or first-degree relative with (i) two or moreclose relatives with a tumor in the LFS spectrum (Table 5),one diagnosed at or before age 45; (ii) breast cancer diagnosedbefore age 30; (iii) two or more LFS tumors in the same person,one diagnosed at or before age 45; (iv) adrenocortical tumor;(v) choroid plexus tumor; or (vi) childhood sarcoma.	LI-FRAUMENI SYNDROME; LFS	https://www.omim.org/entry/151623	Descriptive Entry
4	personal	Ashkenazi Jewish ancestry and breast cancer at any age	Consider referral for a cancer genetic consultation	Hereditary breast–ovarian cancer syndrome (HBOC)	604370|612555	Hereditary breast–ovarian cancer (HBOC) syndrome is caused by mutations in the BRCA1 and BRCA2 genes and is characterized by increased risks for early-onset breast, multiple breast primaries, male breast, and epithelial ovarian, Fallopian tube, or primary peritoneal cancers. In addition, cancers of the pancreas, prostate, and melanoma are more common in individuals with HBOC syndrome. The pathology of “triple-negative phenotype” breast cancer (estrogen receptor–negative, progesterone receptor–negative, and HER2/neu–negative) has been strongly associated with BRCA1 mutations.56–59 The likelihood of identifying a BRCA1/2 mutation in a woman with ovarian cancer at any age is around 13–18%.60–62 Of males with breast cancer, 15–20% have a BRCA1/2 mutation.63 The overall prevalence of BRCA1 mutations is estimated at 1 in 300 and that of BRCA2 mutations is estimated at 1 in 800, but founder mutations in many populations (e.g., Ashkenazi Jewish,64–67 Icelandic,68 and Mexican Hispanic69 populations) lead to increased mutation prevalence in these populations. Referral should be considered for any individual with a personal history of or first-degree relative with (i) breast cancer diagnosed at or before age 50; (ii) triple-negative breast cancer diagnosed at or before age 60; (iii) two or more primary breast cancers in the same person; (iv) ovarian, Fallopian tube, or primary peritoneal cancer; (v) Ashkenazi Jewish ancestry and breast or pancreatic cancer at any age; or (vi) male breast cancer. Individuals with a family history of three or more cases of breast, ovarian, pancreatic, and/or aggressive prostate cancer (Gleason score ≥7) (refs.70,71) should also be referred. Note that this should not include families in which all three cases are aggressive prostate cancer.	BREAST-OVARIAN CANCER, FAMILIAL, SUSCEPTIBILITY TO, 1; BROVCA1|BREAST-OVARIAN CANCER, FAMILIAL, SUSCEPTIBILITY TO, 2; BROVCA2	https://www.omim.org/entry/604370|https://www.omim.org/entry/612555	Descriptive Entry|Descriptive Entry
4	personal	Ashkenazi Jewish ancestry and breast cancer at any age	Consider referral for a cancer genetic consultation	Li–Fraumeni syndrome (LFS)	151623	Li–Fraumeni syndrome (LFS) is caused by mutations in theTP53 gene and is characterized by the core cancers of breast,brain, adrenocortex, and non-Ewing sarcoma, with onsetoften before age 50 and multiple primary tumors. Young ageat diagnosis (before age 30) and the type of malignancy are goodindicators of a TP53 mutation. In individuals diagnosed withan adrenocortical tumor or choroid plexus tumor at or beforeage 18, the likelihood of identifying a TP53 mutation approaches80 and 100%, respectively. Individuals with a childhoodsarcoma have a higher likelihood of LFS; 6.6% had a TP53 mutation in one series (although the majority of these cases wouldmeet the classic LFS criteria). For these guidelines, we areadopting a combination of the Eeles and revised Chompret criteria. In two large studies, 29% and 35% of individualswho met the original, slightly more restrictive, Chompret criteria had a TP53 mutation. However, 14% of individuals whomet the looser Eeles criteria also had a TP53 mutation.Referral should be considered for any individual with a personal history of or first-degree relative with (i) two or moreclose relatives with a tumor in the LFS spectrum (Table 5),one diagnosed at or before age 45; (ii) breast cancer diagnosedbefore age 30; (iii) two or more LFS tumors in the same person,one diagnosed at or before age 45; (iv) adrenocortical tumor;(v) choroid plexus tumor; or (vi) childhood sarcoma.	LI-FRAUMENI SYNDROME; LFS	https://www.omim.org/entry/151623	Descriptive Entry
5	personal	≥3 cases of breast, ovarian, pancreatic, and/or aggressive prostate cancer in close relatives, including the patient	Consider referral for a cancer genetic consultation	Hereditary breast–ovarian cancer syndrome (HBOC)	604370|612555	Hereditary breast–ovarian cancer (HBOC) syndrome is caused by mutations in the BRCA1 and BRCA2 genes and is characterized by increased risks for early-onset breast, multiple breast primaries, male breast, and epithelial ovarian, Fallopian tube, or primary peritoneal cancers. In addition, cancers of the pancreas, prostate, and melanoma are more common in individuals with HBOC syndrome. The pathology of “triple-negative phenotype” breast cancer (estrogen receptor–negative, progesterone receptor–negative, and HER2/neu–negative) has been strongly associated with BRCA1 mutations.56–59 The likelihood of identifying a BRCA1/2 mutation in a woman with ovarian cancer at any age is around 13–18%.60–62 Of males with breast cancer, 15–20% have a BRCA1/2 mutation.63 The overall prevalence of BRCA1 mutations is estimated at 1 in 300 and that of BRCA2 mutations is estimated at 1 in 800, but founder mutations in many populations (e.g., Ashkenazi Jewish,64–67 Icelandic,68 and Mexican Hispanic69 populations) lead to increased mutation prevalence in these populations. Referral should be considered for any individual with a personal history of or first-degree relative with (i) breast cancer diagnosed at or before age 50; (ii) triple-negative breast cancer diagnosed at or before age 60; (iii) two or more primary breast cancers in the same person; (iv) ovarian, Fallopian tube, or primary peritoneal cancer; (v) Ashkenazi Jewish ancestry and breast or pancreatic cancer at any age; or (vi) male breast cancer. Individuals with a family history of three or more cases of breast, ovarian, pancreatic, and/or aggressive prostate cancer (Gleason score ≥7) (refs.70,71) should also be referred. Note that this should not include families in which all three cases are aggressive prostate cancer.	BREAST-OVARIAN CANCER, FAMILIAL, SUSCEPTIBILITY TO, 1; BROVCA1|BREAST-OVARIAN CANCER, FAMILIAL, SUSCEPTIBILITY TO, 2; BROVCA2	https://www.omim.org/entry/604370|https://www.omim.org/entry/612555	Descriptive Entry|Descriptive Entry
5	personal	≥3 cases of breast, ovarian, pancreatic, and/or aggressive prostate cancer in close relatives, including the patient	Consider referral for a cancer genetic consultation	Li–Fraumeni syndrome (LFS)	151623	Li–Fraumeni syndrome (LFS) is caused by mutations in theTP53 gene and is characterized by the core cancers of breast,brain, adrenocortex, and non-Ewing sarcoma, with onsetoften before age 50 and multiple primary tumors. Young ageat diagnosis (before age 30) and the type of malignancy are goodindicators of a TP53 mutation. In individuals diagnosed withan adrenocortical tumor or choroid plexus tumor at or beforeage 18, the likelihood of identifying a TP53 mutation approaches80 and 100%, respectively. Individuals with a childhoodsarcoma have a higher likelihood of LFS; 6.6% had a TP53 mutation in one series (although the majority of these cases wouldmeet the classic LFS criteria). For these guidelines, we areadopting a combination of the Eeles and revised Chompret criteria. In two large studies, 29% and 35% of individualswho met the original, slightly more restrictive, Chompret criteria had a TP53 mutation. However, 14% of individuals whomet the looser Eeles criteria also had a TP53 mutation.Referral should be considered for any individual with a personal history of or first-degree relative with (i) two or moreclose relatives with a tumor in the LFS spectrum (Table 5),one diagnosed at or before age 45; (ii) breast cancer diagnosedbefore age 30; (iii) two or more LFS tumors in the same person,one diagnosed at or before age 45; (iv) adrenocortical tumor;(v) choroid plexus tumor; or (vi) childhood sarcoma.	LI-FRAUMENI SYNDROME; LFS	https://www.omim.org/entry/151623	Descriptive Entry
6	family	≥3 cases of breast, ovarian, pancreatic, and/or aggressive prostate cancer in close relatives, including the patient	Consider referral for a cancer genetic consultation	Hereditary breast–ovarian cancer syndrome (HBOC)	604370|612555	Hereditary breast–ovarian cancer (HBOC) syndrome is caused by mutations in the BRCA1 and BRCA2 genes and is characterized by increased risks for early-onset breast, multiple breast primaries, male breast, and epithelial ovarian, Fallopian tube, or primary peritoneal cancers. In addition, cancers of the pancreas, prostate, and melanoma are more common in individuals with HBOC syndrome. The pathology of “triple-negative phenotype” breast cancer (estrogen receptor–negative, progesterone receptor–negative, and HER2/neu–negative) has been strongly associated with BRCA1 mutations.56–59 The likelihood of identifying a BRCA1/2 mutation in a woman with ovarian cancer at any age is around 13–18%.60–62 Of males with breast cancer, 15–20% have a BRCA1/2 mutation.63 The overall prevalence of BRCA1 mutations is estimated at 1 in 300 and that of BRCA2 mutations is estimated at 1 in 800, but founder mutations in many populations (e.g., Ashkenazi Jewish,64–67 Icelandic,68 and Mexican Hispanic69 populations) lead to increased mutation prevalence in these populations. Referral should be considered for any individual with a personal history of or first-degree relative with (i) breast cancer diagnosed at or before age 50; (ii) triple-negative breast cancer diagnosed at or before age 60; (iii) two or more primary breast cancers in the same person; (iv) ovarian, Fallopian tube, or primary peritoneal cancer; (v) Ashkenazi Jewish ancestry and breast or pancreatic cancer at any age; or (vi) male breast cancer. Individuals with a family history of three or more cases of breast, ovarian, pancreatic, and/or aggressive prostate cancer (Gleason score ≥7) (refs.70,71) should also be referred. Note that this should not include families in which all three cases are aggressive prostate cancer.	BREAST-OVARIAN CANCER, FAMILIAL, SUSCEPTIBILITY TO, 1; BROVCA1|BREAST-OVARIAN CANCER, FAMILIAL, SUSCEPTIBILITY TO, 2; BROVCA2	https://www.omim.org/entry/604370|https://www.omim.org/entry/612555	Descriptive Entry|Descriptive Entry
6	family	≥3 cases of breast, ovarian, pancreatic, and/or aggressive prostate cancer in close relatives, including the patient	Consider referral for a cancer genetic consultation	Li–Fraumeni syndrome (LFS)	151623	Li–Fraumeni syndrome (LFS) is caused by mutations in theTP53 gene and is characterized by the core cancers of breast,brain, adrenocortex, and non-Ewing sarcoma, with onsetoften before age 50 and multiple primary tumors. Young ageat diagnosis (before age 30) and the type of malignancy are goodindicators of a TP53 mutation. In individuals diagnosed withan adrenocortical tumor or choroid plexus tumor at or beforeage 18, the likelihood of identifying a TP53 mutation approaches80 and 100%, respectively. Individuals with a childhoodsarcoma have a higher likelihood of LFS; 6.6% had a TP53 mutation in one series (although the majority of these cases wouldmeet the classic LFS criteria). For these guidelines, we areadopting a combination of the Eeles and revised Chompret criteria. In two large studies, 29% and 35% of individualswho met the original, slightly more restrictive, Chompret criteria had a TP53 mutation. However, 14% of individuals whomet the looser Eeles criteria also had a TP53 mutation.Referral should be considered for any individual with a personal history of or first-degree relative with (i) two or moreclose relatives with a tumor in the LFS spectrum (Table 5),one diagnosed at or before age 45; (ii) breast cancer diagnosedbefore age 30; (iii) two or more LFS tumors in the same person,one diagnosed at or before age 45; (iv) adrenocortical tumor;(v) choroid plexus tumor; or (vi) childhood sarcoma.	LI-FRAUMENI SYNDROME; LFS	https://www.omim.org/entry/151623	Descriptive Entry
7	personal	Breast cancer and one additional LFS tumor (Table 5) in the same person or in two relatives, one dx at age ≤45	Consider referral for a cancer genetic consultation	Hereditary breast–ovarian cancer syndrome (HBOC)	604370|612555	Hereditary breast–ovarian cancer (HBOC) syndrome is caused by mutations in the BRCA1 and BRCA2 genes and is characterized by increased risks for early-onset breast, multiple breast primaries, male breast, and epithelial ovarian, Fallopian tube, or primary peritoneal cancers. In addition, cancers of the pancreas, prostate, and melanoma are more common in individuals with HBOC syndrome. The pathology of “triple-negative phenotype” breast cancer (estrogen receptor–negative, progesterone receptor–negative, and HER2/neu–negative) has been strongly associated with BRCA1 mutations.56–59 The likelihood of identifying a BRCA1/2 mutation in a woman with ovarian cancer at any age is around 13–18%.60–62 Of males with breast cancer, 15–20% have a BRCA1/2 mutation.63 The overall prevalence of BRCA1 mutations is estimated at 1 in 300 and that of BRCA2 mutations is estimated at 1 in 800, but founder mutations in many populations (e.g., Ashkenazi Jewish,64–67 Icelandic,68 and Mexican Hispanic69 populations) lead to increased mutation prevalence in these populations. Referral should be considered for any individual with a personal history of or first-degree relative with (i) breast cancer diagnosed at or before age 50; (ii) triple-negative breast cancer diagnosed at or before age 60; (iii) two or more primary breast cancers in the same person; (iv) ovarian, Fallopian tube, or primary peritoneal cancer; (v) Ashkenazi Jewish ancestry and breast or pancreatic cancer at any age; or (vi) male breast cancer. Individuals with a family history of three or more cases of breast, ovarian, pancreatic, and/or aggressive prostate cancer (Gleason score ≥7) (refs.70,71) should also be referred. Note that this should not include families in which all three cases are aggressive prostate cancer.	BREAST-OVARIAN CANCER, FAMILIAL, SUSCEPTIBILITY TO, 1; BROVCA1|BREAST-OVARIAN CANCER, FAMILIAL, SUSCEPTIBILITY TO, 2; BROVCA2	https://www.omim.org/entry/604370|https://www.omim.org/entry/612555	Descriptive Entry|Descriptive Entry
7	personal	Breast cancer and one additional LFS tumor (Table 5) in the same person or in two relatives, one dx at age ≤45	Consider referral for a cancer genetic consultation	Li–Fraumeni syndrome (LFS)	151623	Li–Fraumeni syndrome (LFS) is caused by mutations in theTP53 gene and is characterized by the core cancers of breast,brain, adrenocortex, and non-Ewing sarcoma, with onsetoften before age 50 and multiple primary tumors. Young ageat diagnosis (before age 30) and the type of malignancy are goodindicators of a TP53 mutation. In individuals diagnosed withan adrenocortical tumor or choroid plexus tumor at or beforeage 18, the likelihood of identifying a TP53 mutation approaches80 and 100%, respectively. Individuals with a childhoodsarcoma have a higher likelihood of LFS; 6.6% had a TP53 mutation in one series (although the majority of these cases wouldmeet the classic LFS criteria). For these guidelines, we areadopting a combination of the Eeles and revised Chompret criteria. In two large studies, 29% and 35% of individualswho met the original, slightly more restrictive, Chompret criteria had a TP53 mutation. However, 14% of individuals whomet the looser Eeles criteria also had a TP53 mutation.Referral should be considered for any individual with a personal history of or first-degree relative with (i) two or moreclose relatives with a tumor in the LFS spectrum (Table 5),one diagnosed at or before age 45; (ii) breast cancer diagnosedbefore age 30; (iii) two or more LFS tumors in the same person,one diagnosed at or before age 45; (iv) adrenocortical tumor;(v) choroid plexus tumor; or (vi) childhood sarcoma.	LI-FRAUMENI SYNDROME; LFS	https://www.omim.org/entry/151623	Descriptive Entry
8	personal	Breast cancer and ≥1 PJ polyp in the same person 	Consider referral for a cancer genetic consultation	Peutz–Jeghers syndrome (PJS)	175200	Peutz–Jeghers syndrome (PJS) is caused by mutations in theSTK11 gene and is characterized by mucocutaneous hyperpigmentation of the mouth, lips, nose, eyes, genitalia, or fingers;multiple hamartomatous polyps in the GI tract; and increasedrisks for colorectal (39% between ages 15 and 64), pancreatic (36%), gastric (29%), and small intestinal (13%) cancers. Inaddition, there are increased risks for breast cancer (54%), ovarian sex cord tumors with annular tubules (21%), and adenomamalignum of the cervix (10%) and the testes, especially Sertolicell tumors (9%). PJ polyps are hamartomatous with glandular epithelium supported by smooth muscle cells contiguouswith the muscularis mucosa.Referral should be considered for any individual with a personal history of or first-degree relative with (i) two or more histologically confirmed PJ GI polyps; (ii) one or more PJ GI polypand mucocutanous hyperpigmentation; (iii) ovarian sex cordtumor with annular tubules; (iv) adenoma malignum of the cervix; (v) Sertoli cell tumor; (vi) pancreatic cancer and one or morePJ GI polyp; (vii) breast cancer and one or more PJ GI polyp; or(viii) one or more PJ polyp and a positive family history of PJS.	PEUTZ-JEGHERS SYNDROME; PJS	https://www.omim.org/entry/175200	Descriptive Entry
9	personal	Lobular breast cancer and diffuse gastric cancer in the same person 	Consider referral for a cancer genetic consultation	Hereditary diffuse gastric cancer (HDGC)	137215	Hereditary diffuse gastric cancer is caused by mutations in theCDH1 gene and is characterized by an increased risk for diffusegastric cancer, lobular breast cancer, and signet ring colorectal cancer. CDH1 mutations occur in 25–50% of individualswho meet the hereditary diffuse gastric cancer criteria.72 TheInternational Gastric Cancer Linkage Consortium’s most recentconsensus guidelines for the clinical management of hereditarydiffuse gastric cancer include indications for CDH1 testing andhave been adopted below.73Referral should be considered for any individual with a personal history of or first-degree relative with (i) diffuse gastriccancer diagnosed before age 40; (ii) lobular breast cancer anddiffuse gastric cancer in the same person; (iii) lobular breastcancer in one relative and diffuse gastric cancer in another, onediagnosed before age 50; or (iv) two cases of gastric cancer infamily, one of which is a confirmed diffuse gastric cancer diagnosed before age 50. Individuals with a family history of threeor more relatives with gastric cancer should also be referred.	GASTRIC CANCER, HEREDITARY DIFFUSE; HDGC	https://www.omim.org/entry/137215	Descriptive Entry
10	personal	Lobular breast cancer in proband and diffuse gastric cancer in close relative, one dx at age <50	Consider referral for a cancer genetic consultation	Hereditary diffuse gastric cancer (HDGC)	137215	Hereditary diffuse gastric cancer is caused by mutations in theCDH1 gene and is characterized by an increased risk for diffusegastric cancer, lobular breast cancer, and signet ring colorectal cancer. CDH1 mutations occur in 25–50% of individualswho meet the hereditary diffuse gastric cancer criteria.72 TheInternational Gastric Cancer Linkage Consortium’s most recentconsensus guidelines for the clinical management of hereditarydiffuse gastric cancer include indications for CDH1 testing andhave been adopted below.73Referral should be considered for any individual with a personal history of or first-degree relative with (i) diffuse gastriccancer diagnosed before age 40; (ii) lobular breast cancer anddiffuse gastric cancer in the same person; (iii) lobular breastcancer in one relative and diffuse gastric cancer in another, onediagnosed before age 50; or (iv) two cases of gastric cancer infamily, one of which is a confirmed diffuse gastric cancer diagnosed before age 50. Individuals with a family history of threeor more relatives with gastric cancer should also be referred.	GASTRIC CANCER, HEREDITARY DIFFUSE; HDGC	https://www.omim.org/entry/137215	Descriptive Entry
11	family	Lobular breast cancer in one relative and diffuse gastric cancer in another, one dx at age <50	Consider referral for a cancer genetic consultation	Hereditary diffuse gastric cancer (HDGC)	137215	Hereditary diffuse gastric cancer is caused by mutations in theCDH1 gene and is characterized by an increased risk for diffusegastric cancer, lobular breast cancer, and signet ring colorectal cancer. CDH1 mutations occur in 25–50% of individualswho meet the hereditary diffuse gastric cancer criteria.72 TheInternational Gastric Cancer Linkage Consortium’s most recentconsensus guidelines for the clinical management of hereditarydiffuse gastric cancer include indications for CDH1 testing andhave been adopted below.73Referral should be considered for any individual with a personal history of or first-degree relative with (i) diffuse gastriccancer diagnosed before age 40; (ii) lobular breast cancer anddiffuse gastric cancer in the same person; (iii) lobular breastcancer in one relative and diffuse gastric cancer in another, onediagnosed before age 50; or (iv) two cases of gastric cancer infamily, one of which is a confirmed diffuse gastric cancer diagnosed before age 50. Individuals with a family history of threeor more relatives with gastric cancer should also be referred.	GASTRIC CANCER, HEREDITARY DIFFUSE; HDGC	https://www.omim.org/entry/137215	Descriptive Entry
12	personal	Breast cancer and two additional Cowden syndrome criteria (Table 4) in the same person	Consider referral for a cancer genetic consultation	Cowden syndrome, also known as PTEN hamartoma tumor syndrome (Cowden)	158350	Cowden syndrome is caused by mutations in the PTEN geneand is characterized by benign skin findings, increased lifetimerisks for breast (30–85%; often early-onset), follicular thyroid(10–38%), renal cell (34%), endometrial (5–28%), and colorectal cancers (9%), and possibly melanoma (6%).24–28 Clinicaldiagnostic criteria involve combinations of major and minorcriteria29 (Table 4). We recommend referral for anyone meetingany three criteria from the major or minor diagnostic criteria.Referral should be considered for any individual with apersonal history of or first-degree relative with (i) Lhermitte–Duclos disease diagnosed after age 18 (ref. 30) or (ii) any three criteria from the major or minor diagnostic criteria list in thesame person31 (Table 4).	COWDEN SYNDROME 1; CWS1	https://www.omim.org/entry/158350	Descriptive Entry
13	personal	Single case present	Consider referral for a cancer genetic consultation	Hereditary breast–ovarian cancer syndrome (HBOC)	604370|612555	Hereditary breast–ovarian cancer (HBOC) syndrome is caused by mutations in the BRCA1 and BRCA2 genes and is characterized by increased risks for early-onset breast, multiple breast primaries, male breast, and epithelial ovarian, Fallopian tube, or primary peritoneal cancers. In addition, cancers of the pancreas, prostate, and melanoma are more common in individuals with HBOC syndrome. The pathology of “triple-negative phenotype” breast cancer (estrogen receptor–negative, progesterone receptor–negative, and HER2/neu–negative) has been strongly associated with BRCA1 mutations.56–59 The likelihood of identifying a BRCA1/2 mutation in a woman with ovarian cancer at any age is around 13–18%.60–62 Of males with breast cancer, 15–20% have a BRCA1/2 mutation.63 The overall prevalence of BRCA1 mutations is estimated at 1 in 300 and that of BRCA2 mutations is estimated at 1 in 800, but founder mutations in many populations (e.g., Ashkenazi Jewish,64–67 Icelandic,68 and Mexican Hispanic69 populations) lead to increased mutation prevalence in these populations. Referral should be considered for any individual with a personal history of or first-degree relative with (i) breast cancer diagnosed at or before age 50; (ii) triple-negative breast cancer diagnosed at or before age 60; (iii) two or more primary breast cancers in the same person; (iv) ovarian, Fallopian tube, or primary peritoneal cancer; (v) Ashkenazi Jewish ancestry and breast or pancreatic cancer at any age; or (vi) male breast cancer. Individuals with a family history of three or more cases of breast, ovarian, pancreatic, and/or aggressive prostate cancer (Gleason score ≥7) (refs.70,71) should also be referred. Note that this should not include families in which all three cases are aggressive prostate cancer.	BREAST-OVARIAN CANCER, FAMILIAL, SUSCEPTIBILITY TO, 1; BROVCA1|BREAST-OVARIAN CANCER, FAMILIAL, SUSCEPTIBILITY TO, 2; BROVCA2	https://www.omim.org/entry/604370|https://www.omim.org/entry/612555	Descriptive Entry|Descriptive Entry